0, 8192, 200.978, 200.208, 0
1, 8192, 200.669, 200.743, 0
2, 8192, 200.105, 200.995, 0
3, 8192, 199.5, 200.866, 0
4, 8192, 199.086, 200.407, 0
5, 8192, 199.022, 199.792, 0
6, 8192, 199.331, 199.257, 0
7, 8192, 199.895, 199.005, 0
8, 8192, 200.5, 199.134, 0
9, 8192, 200.914, 199.593, 0
10, 8192, 201.599, 200.712, 0
11, 8192, 200.875, 201.516, 0
12, 8192, 199.817, 201.74, 0
13, 8192, 198.829, 201.301, 0
14, 8192, 198.288, 200.364, 0
15, 8192, 198.401, 199.288, 0
16, 8192, 199.125, 198.484, 0
17, 8192, 200.183, 198.26, 0
18, 8192, 201.171, 198.699, 0
19, 8192, 201.712, 199.636, 0
20, 8192, 202.41, 200.665, 0
21, 8192, 201.559, 201.955, 0
22, 8192, 200.112, 202.497, 0
23, 8192, 198.623, 202.086, 0
24, 8192, 197.659, 200.878, 0
25, 8192, 197.59, 199.335, 0
26, 8192, 198.441, 198.045, 0
27, 8192, 199.888, 197.503, 0
28, 8192, 201.377, 197.914, 0
29, 8192, 202.341, 199.122, 0
