0	0.015000
1	0.015000 
2	0.015000 
3	0.015000 
4	0.000015000 
5	0.000015000 
6	0.000015000 
7	0.000015000 
8	0.000015000 
9	0.000015000 
10	0.000015000 
11	0.000015000 
12	0.000015000 
13	0.000015000 
14	0.000015000 
15	0.000015000 
16	0.000015000 
17	0.000015000 
18	0.000015000 
19	0.000015000 
20	0.000015000 
21	0.000015000 
22	0.000015000 
23	0.000015000 
24	0.000015000
25	0.000015000 
26	0.000015000 
27	0.000015000
28	0.000015000
29	0.000015000 
30	0.000015000 
31	0.000015000
32	0.000015000 
33	0.000015000
34	0.000015000 
35	0.000015000 
36	0.000015000 
37	0.000015000 
38	0.000015000 
39	0.000015000 
40	0.000015000 
41	0.000015000 
42	0.000015000 
43	0.000015000 
44	0.000015000 
45	0.000015000 
46	0.000015000 
47	0.000015000 
48	0.000015000 
49	0.000015000 
50	0.000015000 
51	0.000015000 
52	0.000015000 
53	0.000015000 
54	0.000015000 
55	0.000015000 
56	0.000015000 
57	0.000015000 
58	0.000015000 
59	0.000015000 
60	0.000015000 
61	0.000015000 
62	0.000015000 
63	0.000015000 
64	0.000015000 
65	0.000015000 
66	0.000015000 
67	0.000015000 
68	0.000015000 
69	0.000015000 
70	0.000015000 

